<?xml version="1.0" encoding="utf-8"?>
<!-- Generator: Adobe Illustrator 15.0.0, SVG Export Plug-In . SVG Version: 6.00 Build 0)  -->
<!DOCTYPE svg PUBLIC "-//W3C//DTD SVG 1.1//EN" "http://www.w3.org/Graphics/SVG/1.1/DTD/svg11.dtd">
<svg version="1.1" id="Capa_1" xmlns="http://www.w3.org/2000/svg" xmlns:xlink="http://www.w3.org/1999/xlink" x="0px" y="0px"
	 width="80px" height="80px" viewBox="0 0 80 80" enable-background="new 0 0 80 80" xml:space="preserve">
<g>
	<g>
		<g>
			<g>
				<g>
					<path fill="#F6F6F6" d="M44.778,0.291C66.704,2.93,82.347,22.846,79.71,44.777c-2.641,21.93-22.557,37.568-44.488,34.932
						C13.291,77.068-2.347,57.156,0.29,35.227C2.928,13.295,22.844-2.344,44.778,0.291z"/>
				</g>
				<g>
					<path fill="#87888A" d="M45.085,5.855l4.982-4.543c-0.363-0.092-0.729-0.191-1.098-0.273l-4.646,4.234
						c-18.286-1.07-28.038,7.422-33.001,14.744c-4.896,7.23-6.205,14.777-6.406,16.123l-4.91,3.408
						c-0.004,0.383,0.004,0.762,0.008,1.146l5.246-3.643l10.52,13.396c-5.76,3.508-10.561,4.51-12.762,4.793
						c0.125,0.309,0.254,0.613,0.387,0.912c2.41-0.336,7.189-1.418,12.961-4.957l6.428,8.182c-5.008,4.967-7.174,9.518-7.996,11.686
						c0.258,0.209,0.518,0.422,0.781,0.625c0.699-1.91,2.766-6.543,7.801-11.561l10.455,13.313l-5.344,4.873
						c0.355,0.104,0.707,0.209,1.066,0.307l5.08-4.639c1.372,0.127,9.005,0.641,17.177-2.402
						c8.271-3.076,18.809-10.512,22.131-28.443l0.012,0.023l6.021-4.178c-0.008-0.373-0.031-0.746-0.051-1.117l-6.279,4.363
						L63.122,28.822c6.379-3.922,11.605-4.77,13.465-4.947c-0.133-0.311-0.275-0.611-0.416-0.914
						c-2.199,0.244-7.34,1.217-13.637,5.111l-6.402-8.148c5.037-4.957,7.238-9.518,8.09-11.73c-0.264-0.201-0.527-0.398-0.795-0.594
						c-0.74,1.99-2.852,6.602-7.883,11.576L45.085,5.855z M51.522,70.686c-8.023,2.992-15.518,2.475-16.797,2.359L5.852,36.273
						c0.189-1.268,1.463-8.67,6.273-15.756c0.652-0.961,1.336-1.871,2.055-2.736C25.293,47.953,49.544,66.59,53.851,69.719
						C53.095,70.063,52.317,70.383,51.522,70.686z M54.829,69.256c-2.65-1.869-28.548-20.813-39.944-52.295
						c2.322-2.623,4.965-4.768,7.922-6.441c29.739,18.428,40.009,49.572,40.854,52.275C61.159,65.434,58.214,67.59,54.829,69.256z
						 M73.021,42.955C71.571,50.783,68.688,57.143,64.394,62c-1.639-4.969-12.277-34.188-40.632-52
						c5.703-2.965,12.519-4.24,20.401-3.793L73.021,42.955z"/>
				</g>
				<g opacity="0.5">
					<path fill="#9C9E9E" d="M79.991,40.002c0,22.09-17.902,39.994-39.992,39.994c16.52-10.918,26.477-17.223,26.477-39.307
						c0-22.088-12.791-34.277-26.477-40.682C62.089,0.008,79.991,17.912,79.991,40.002z"/>
				</g>
			</g>
		</g>
	</g>
</g>
</svg>
